$ 1 0.000005 8.281975887399955 71 5 43 5e-11
R -208 416 -224 416 0 0 40 0.35000000000000003 0 0 0.5
w -208 416 -144 416 0
t -128 368 -128 416 1 -1 -0.6820717481745034 -0.7000000000000002 100 default
w -112 416 -96 416 0
w -96 416 -96 448 0
c -96 448 -96 480 0 0.000001 0.33207174817450336 0.001
g -96 480 -96 528 0 0
w -96 416 -64 416 0
t -48 368 -48 416 1 -1 0.17269339975195225 0.017928251825496677 100 default
w -128 368 -128 288 0
w -48 368 -48 320 0
w -128 288 -224 288 0
w -48 320 -224 320 0
R -224 288 -288 288 0 2 60 0.35000000000000003 0 0 0.5
R -224 320 -288 320 0 2 60 0.35000000000000003 0 3.141592653589793 0.5
w -32 416 0 416 0
w -48 368 0 368 0
c 0 368 0 416 0 0.000001 0.17269339975195225 0
w 0 416 64 416 0
t 80 368 80 416 1 -1 0.10314265579068949 -0.5273066002480479 100 default
w 80 368 128 368 0
c 128 368 128 416 0 0.000001 0.10314265579068949 0
w 96 416 128 416 0
w 80 368 80 288 0
w -128 288 80 288 0
w 128 416 192 416 0
t 208 368 208 416 1 -1 0.17269721850829717 0.8031426557906896 100 default
w 208 368 256 368 0
c 256 368 256 416 0 0.000001 0.17269721850829717 0
w 224 416 256 416 0
w 208 368 208 320 0
w -48 320 208 320 0
w 256 416 304 416 0
t 320 368 320 416 1 -1 0.1077158701267179 -0.527302781491703 100 default
w 320 368 368 368 0
c 368 368 368 416 0 0.000001 0.1077158701267179 0
w 336 416 368 416 0
w 80 288 320 288 0
w 320 288 320 368 0
w 368 416 416 416 0
t 432 368 432 416 1 -1 0.1727052743467861 0.807715870126718 100 default
w 448 416 480 416 0
w 432 368 480 368 0
c 480 368 480 416 0 0.000001 0.1727052743467861 0
w 208 320 432 320 0
w 432 320 432 368 0
w 320 288 544 288 0
w 544 288 544 368 0
t 544 368 544 416 1 -1 -5.551115123125783e-17 -0.527294725653214 100 default
w 480 416 528 416 0
R 560 416 608 416 0 0 40 -0.35000000000000003 0 0 0.5
o 13 64 0 4099 2.5 0.2 0 4 13 3 14 0 14 3
